Forcats
…
---
## Exemple: Données en duplicata
Exploration et utilisation de la variable clinique
Compter les entrées:

```r
fct_count(Cliniques)
```

```
## # A tibble: 48 × 2
##    f         n
##    <fct> <int>
##  1 112S     74
##  2 212N      2
##  3 212S      1
##  4 312N      1
##  5 32        1
##  6 35        1
##  7 CH05B     1
##  8 CH06B     1
##  9 CH09B     1
## 10 CH10B     2
## # … with 38 more rows
```
…
